{
  "name": "MessageFeedback",
  "fields": [
    {
      "fieldName": "systemId",
      "fieldType": "Long"
    },
    {
      "fieldName": "centerId",
      "fieldType": "Long"
    },
    {
      "fieldName": "systemServicesId",
      "fieldType": "Long"
    },
    {
      "fieldName": "counter",
      "fieldType": "Long"
    },
    {
      "fieldName": "trsId",
      "fieldType": "Long"
    },
    {
      "fieldName": "userId",
      "fieldType": "Long"
    },
    {
      "fieldName": "message",
      "fieldType": "String"
    },
    {
      "fieldName": "status",
      "fieldType": "Integer"
    },
    {
      "fieldName": "feedback",
      "fieldType": "String"
    },
    {
      "fieldName": "applicantName",
      "fieldType": "String"
    }
  ],
  "relationships": [],
  "changelogDate": "20210201054607",
  "javadoc": "MessageFeedback (message_feedback) entity.\\n@author Ibrahim Hassanin.",
  "entityTableName": "message_feedback",
  "dto": "mapstruct",
  "pagination": "pagination",
  "service": "serviceImpl",
  "jpaMetamodelFiltering": true,
  "fluentMethods": true,
  "readOnly": false,
  "embedded": false,
  "clientRootFolder": "",
  "applications": "*"
}
