{
  "name": "Messages",
  "fields": [
    {
      "fieldName": "counter",
      "fieldType": "Long"
    },
    {
      "fieldName": "trsId",
      "fieldType": "Long"
    },
    {
      "fieldName": "userId",
      "fieldType": "Long"
    },
    {
      "fieldName": "message",
      "fieldType": "String"
    },
    {
      "fieldName": "status",
      "fieldType": "Integer"
    },
    {
      "fieldName": "applicantName",
      "fieldType": "String"
    }
  ],
  "relationships": [
    {
      "relationshipType": "many-to-one",
      "otherEntityName": "center",
      "otherEntityRelationshipName": "centerMessages",
      "relationshipName": "center",
      "otherEntityField": "id"
    },
    {
      "relationshipType": "many-to-one",
      "otherEntityName": "system",
      "otherEntityRelationshipName": "systemMessages",
      "relationshipName": "system",
      "otherEntityField": "id"
    },
    {
      "relationshipType": "many-to-one",
      "otherEntityName": "systemServices",
      "otherEntityRelationshipName": "systemServicesMessages",
      "relationshipName": "systemServices",
      "otherEntityField": "id"
    },
    {
      "relationshipType": "many-to-one",
      "otherEntityName": "users",
      "otherEntityRelationshipName": "usersMessages",
      "relationshipName": "users",
      "otherEntityField": "id"
    }
  ],
  "changelogDate": "20210201054507",
  "javadoc": "Messages (messages) entity.\\n@author Ibrahim Hassanin.",
  "entityTableName": "messages",
  "dto": "mapstruct",
  "pagination": "pagination",
  "service": "serviceImpl",
  "jpaMetamodelFiltering": true,
  "fluentMethods": true,
  "readOnly": false,
  "embedded": false,
  "clientRootFolder": "",
  "applications": "*"
}
